Uso basico del paquete casen
…
2022-09-03

Datos de ejemplo

El uso de este paquete se mostrara a partir de los datos de ejemplo.
Vamos a leer un subconjunto de la encuesta CASEN que corresponde a las
comunas con representatividad comunal en la Region de los Rios. Estos
datos se incluyen, a modo de demostracion, con el paquete casen, no asi
las encuestas completas que deben ser descargadas y se provee una
funcion para hacerlo.

library(casen)
casen_2017_los_rios

## # A tibble: 8,055 × 7
##     expc varstrat     varunit ytotcorh       sexo           comuna       pobreza
##    <dbl>    <dbl>       <dbl>    <dbl>  <dbl+lbl>        <dbl+lbl>     <dbl+lbl>
##  1    53   141283 14128301184   959765 2 [Mujer]  14101 [Valdivia] 3 [No pobres]
##  2    53   141283 14128301184   959765 2 [Mujer]  14101 [Valdivia] 3 [No pobres]
##  3    53   141283 14128301184   959765 2 [Mujer]  14101 [Valdivia] 3 [No pobres]
##  4   105   141283 14128301184   283273 2 [Mujer]  14101 [Valdivia] 2 [Pobres no…
##  5   105   141283 14128301184   283273 1 [Hombre] 14101 [Valdivia] 2 [Pobres no…
##  6   105   141283 14128301184   283273 2 [Mujer]  14101 [Valdivia] 2 [Pobres no…
##  7   105   141283 14128301184   353083 2 [Mujer]  14101 [Valdivia] 3 [No pobres]
##  8   105   141283 14128301184   260000 2 [Mujer]  14101 [Valdivia] 2 [Pobres no…
##  9   105   141283 14128301184   260000 2 [Mujer]  14101 [Valdivia] 2 [Pobres no…
## 10   105   141283 14128301184   260000 1 [Hombre] 14101 [Valdivia] 2 [Pobres no…
## # … with 8,045 more rows
## # ℹ Use `print(n = ...)` to see more rows
…
Comparabilidad entre encuestas

El paquete casen provee un conjunto de datos con la correspondencia
de los codigos de comunas.

Veamos como convertir los codigos de la encuesta CASEN 1990 a codigos
SUBDERE 2017.

codigos_casen %>% 
  filter(valido_desde == 1990)

## # A tibble: 323 × 4
## # Groups:   codigo_casen, codigo_subdere_2017 [323]
##    valido_desde valido_hasta codigo_casen codigo_subdere_2017
##           <dbl>        <dbl>        <int> <chr>              
##  1         1990         2017        11201 11201              
##  2         1990         2003         5605 05602              
##  3         1990         2003        13504 13502              
##  4         1990         2003         3304 03302              
##  5         1990         2003         1307 01107              
##  6         1990         2003        10402 10202              
##  7         1990         2003         4104 04103              
##  8         1990         2003         9101 09201              
##  9         1990         2003         2301 02101              
## 10         1990         2003         8204 08302              
## # … with 313 more rows
## # ℹ Use `print(n = ...)` to see more rows
…
